{
  "images" : [
    {
      "filename" : "papers.co-sp21-blur-gradation-pastel-blue-41-iphone-wallpaper-240x519.jpg",
      "idiom" : "universal"
    }
  ],
  "info" : {
    "author" : "xcode",
    "version" : 1
  }
}
